Exploratory analysis and quality check of the SMARTrial proteomic/metabolomic data
…
patAnno <- DataFrame(df_invivo)
rownames(patAnno) <- patAnno$patientID

Read pdated patient annotations

patTabNew <- readxl::read_xlsx("../data/20230807_SMART_SC006_final.xlsx")

Final SMARTrail patients that are not in the proteomic
annotation

filter(df_invivo, !patientID %in% patTabNew$SMART_ID) %>% arrange(patientID)

# A tibble: 27 × 47
   patien…¹ Date_birth Sex   Date_of_…²   age Date_rep…³ time_…⁴ mater…⁵ tumor…⁶
   <chr>    <date>     <fct> <date>     <dbl> <date>     <drtn>  <fct>     <dbl>
 1 S005     1987-07-15 Male  2018-04-27    31 2018-05-02 5 days  LN           70
 2 S008     1962-07-15 Male  2018-05-04    56 2018-05-06 2 days  PB           96
 3 S012     1937-07-15 Male  2018-06-11    81 2018-06-13 2 days  BM           59
 4 S019     1967-07-15 Fema… 2018-07-18    51 2018-07-20 2 days  BM           60
 5 S022     1947-07-15 Male  2018-08-07    71 2018-08-10 3 days  LN           77
 6 S025     1994-07-15 Male  2018-10-02    24 2018-10-04 2 days  PB           88
 7 S027     1954-07-15 Male  2018-10-04    64 2018-10-10 6 days  PB           79
 8 S035     1943-07-15 Male  2018-11-23    75 2018-11-28 5 days  PB           90
 9 S040     1945-07-15 Male  2019-01-08    74 2019-01-10 2 days  PB           76
10 S042     1941-07-15 Male  2019-01-23    78 2019-01-25 2 days  PB           57
# … with 17 more rows, 38 more variables: date_diagnosis <date>,
#   diagnosis <chr>, Pretreatment <chr>, lines_pretreatment <dbl>,
#   pretreatment_spec <chr>, NPM1 <dbl>, CEBPA <dbl>, FLT3 <dbl>,
#   FLT3_ITD_ratio <dbl>, FLT3_TKD <dbl>, IDH1 <dbl>, IDH2 <dbl>,
#   `bcr-abl` <dbl>, IGHV.status <dbl>, TP53 <dbl>, BIRC3 <dbl>, CAK <dbl>,
#   MLL_rearragement <dbl>, `t(15;17)` <dbl>, Del17p <dbl>, `Del 11q` <dbl>,
#   `Del 13q` <dbl>, Trisomie_12q13 <dbl>, `Trisomy 8q24` <dbl>, …
# ℹ Use `print(n = ...)` to see more rows, and `colnames()` to see all variable names
…
