Exploratory analysis and quality check of the SMARTrial proteomic/metabolomic data
…
patAnno <- DataFrame(df_invivo)
rownames(patAnno) <- patAnno$patientID

Read sample/patient metadata from OpenBis table

patTabNew <- readxl::read_xlsx("../data/20230807_SMART_SC006_final.xlsx")

Final SMARTrail patients that are not in the OpenBis annotation

filter(df_invivo, !patientID %in% patTabNew$SMART_ID) %>% arrange(patientID)

# A tibble: 27 × 47
   patientID Date_birth Sex    Date_of_inclusion   age Date_report time_report
   <chr>     <date>     <fct>  <date>            <dbl> <date>      <drtn>     
 1 S005      1987-07-15 Male   2018-04-27           31 2018-05-02  5 days     
 2 S008      1962-07-15 Male   2018-05-04           56 2018-05-06  2 days     
 3 S012      1937-07-15 Male   2018-06-11           81 2018-06-13  2 days     
 4 S019      1967-07-15 Female 2018-07-18           51 2018-07-20  2 days     
 5 S022      1947-07-15 Male   2018-08-07           71 2018-08-10  3 days     
 6 S025      1994-07-15 Male   2018-10-02           24 2018-10-04  2 days     
 7 S027      1954-07-15 Male   2018-10-04           64 2018-10-10  6 days     
 8 S035      1943-07-15 Male   2018-11-23           75 2018-11-28  5 days     
 9 S040      1945-07-15 Male   2019-01-08           74 2019-01-10  2 days     
10 S042      1941-07-15 Male   2019-01-23           78 2019-01-25  2 days     
# ℹ 17 more rows
# ℹ 40 more variables: material <fct>, tumor_infiltration <dbl>,
#   date_diagnosis <date>, diagnosis <chr>, Pretreatment <chr>,
#   lines_pretreatment <dbl>, pretreatment_spec <chr>, NPM1 <dbl>, CEBPA <dbl>,
#   FLT3 <dbl>, FLT3_ITD_ratio <dbl>, FLT3_TKD <dbl>, IDH1 <dbl>, IDH2 <dbl>,
#   `bcr-abl` <dbl>, IGHV.status <dbl>, TP53 <dbl>, BIRC3 <dbl>, CAK <dbl>,
#   MLL_rearragement <dbl>, `t(15;17)` <dbl>, Del17p <dbl>, `Del 11q` <dbl>, …
…
Patients without in-vivo response annotation

dplyr::filter(patAnno, is.na(Resp_protocol)) %>%
  select(sampleID, SMART_ID, DIETRICH_ID, OMZ_ID, DISEASE, Resp_protocol)

# A tibble: 21 × 6
   sampleID SMART_ID   DIETRICH_ID OMZ_ID   DISEASE Resp_protocol
   <chr>    <chr>      <chr>       <chr>    <chr>   <chr>        
 1 S1535    S077       20SCPB0013  OMZP0410 MCL     <NA>         
 2 S1199    A003       18SCPB0315  OMZP0060 CLL     <NA>         
 3 S1343    S030       18SCPB0252  OMZP0088 CLL     <NA>         
 4 S1367    S034       18SCPB0391  OMZP0242 CLL     <NA>         
 5 S1207    A010       19SCPB0145  OMZP0398 DLBCL   <NA>         
 6 S1615    20SCPB0157 20SCPB0157  OMZP0556 CLL     <NA>         
 7 S1351    S032       18SCPB0376  OMZP0295 CLL     <NA>         
 8 S1607    20SCPB0159 20SCPB0159  OMZP0558 CLL     <NA>         
 9 S1303    S020       18SCPB0291  OMZP0251 T-PLL   <NA>         
10 S1599    21SCPB0009 21SCPB0009  OMZP0217 CLL     <NA>         
# ℹ 11 more rows
…
